^H:\CLASSES\YEAR2\A-EGP-200_GRAPHICS\GRAPHICSI\SOURCE\EGPDEMO_FREEGLUT\DEMO_MAIN.CPP|H:\CLASSES\YEAR2\A-EGP-200_GRAPHICS\GRAPHICSI\SOURCE\EGPDEMO_FREEGLUT\DEMO_UTILS.CPP|H:\CLASSES\YEAR2\A-EGP-200_GRAPHICS\GRAPHICSI\SOURCE\EGPDEMO_FREEGLUT\DEMO_UTILS_3B.CPP
H:\CLASSES\YEAR2\A-EGP-200_GRAPHICS\GRAPHICSI\PROJECT\VS2015\EGPDEMO_FREEGLUT\BUILD\X64\V140\DEBUG\VC140.PDB
H:\CLASSES\YEAR2\A-EGP-200_GRAPHICS\GRAPHICSI\PROJECT\VS2015\EGPDEMO_FREEGLUT\BUILD\X64\V140\DEBUG\VC140.IDB
H:\CLASSES\YEAR2\A-EGP-200_GRAPHICS\GRAPHICSI\PROJECT\VS2015\EGPDEMO_FREEGLUT\BUILD\X64\V140\DEBUG\DEMO_MAIN.OBJ
H:\CLASSES\YEAR2\A-EGP-200_GRAPHICS\GRAPHICSI\PROJECT\VS2015\EGPDEMO_FREEGLUT\BUILD\X64\V140\DEBUG\DEMO_UTILS.OBJ
H:\CLASSES\YEAR2\A-EGP-200_GRAPHICS\GRAPHICSI\PROJECT\VS2015\EGPDEMO_FREEGLUT\BUILD\X64\V140\DEBUG\DEMO_UTILS_3B.OBJ
^H:\CLASSES\YEAR2\A-EGP-200_GRAPHICS\GRAPHICSI\SOURCE\EGPDEMO_FREEGLUT\DEMO_MAIN.CPP
H:\CLASSES\YEAR2\A-EGP-200_GRAPHICS\GRAPHICSI\PROJECT\VS2015\EGPDEMO_FREEGLUT\BUILD\X64\V140\DEBUG\VC140.PDB
^H:\CLASSES\YEAR2\A-EGP-200_GRAPHICS\GRAPHICSI\SOURCE\EGPDEMO_FREEGLUT\DEMO_UTILS.CPP
H:\CLASSES\YEAR2\A-EGP-200_GRAPHICS\GRAPHICSI\PROJECT\VS2015\EGPDEMO_FREEGLUT\BUILD\X64\V140\DEBUG\VC140.PDB
^H:\CLASSES\YEAR2\A-EGP-200_GRAPHICS\GRAPHICSI\SOURCE\EGPDEMO_FREEGLUT\DEMO_UTILS_3B.CPP
H:\CLASSES\YEAR2\A-EGP-200_GRAPHICS\GRAPHICSI\PROJECT\VS2015\EGPDEMO_FREEGLUT\BUILD\X64\V140\DEBUG\VC140.PDB
^H:\CLASSES\YEAR2\A-EGP-200_GRAPHICS\GRAPHICSI\SOURCE\EGPDEMO_FREEGLUT\DEMO_MAIN.CPP|H:\CLASSES\YEAR2\A-EGP-200_GRAPHICS\GRAPHICSI\SOURCE\EGPDEMO_FREEGLUT\DEMO_UTILS_3B.CPP
H:\CLASSES\YEAR2\A-EGP-200_GRAPHICS\GRAPHICSI\PROJECT\VS2015\EGPDEMO_FREEGLUT\BUILD\X64\V140\DEBUG\DEMO_MAIN.OBJ
H:\CLASSES\YEAR2\A-EGP-200_GRAPHICS\GRAPHICSI\PROJECT\VS2015\EGPDEMO_FREEGLUT\BUILD\X64\V140\DEBUG\DEMO_UTILS_3B.OBJ
