^H:\CLASSES\YEAR2\A-EGP-200_GRAPHICS\GRAPHICSI\SOURCE\LIBFLUX\LIBFLUX.CPP
C:\WINDOWS\GLOBALIZATION\SORTING\SORTDEFAULT.NLS
C:\PROGRAM FILES (X86)\MICROSOFT VISUAL STUDIO 14.0\VC\BIN\1033\CLUI.DLL
C:\WINDOWS\SYSTEM32\RSAENH.DLL
C:\WINDOWS\SYSTEM32\TZRES.DLL
H:\CLASSES\YEAR2\A-EGP-200_GRAPHICS\GRAPHICSI\INCLUDE\LIBFLUX\LIBFLUX.H
